[
 {
  "index": 1,
  "previousHash": "0",
  "timestamp": 1254862800,
  "data": {
   "user": "MobiDev",
   "value": "Rocks!"
  },
  "hash": "1ec2ca6dbd0e94c33e2e731c8db34162055d45eea3a5f10349b0d9ad5a616857"
 },
 {
  "index": 2,
  "previousHash": "1ec2ca6dbd0e94c33e2e731c8db34162055d45eea3a5f10349b0d9ad5a616857",
  "timestamp": 1534874488938,
  "data": {
   "user": "",
   "value": ""
  },
  "hash": "8c400c6dcc15850101a6f0cff7260192ec7ccee961a40ebbce111f24f47274d2"
 },
 {
  "index": 3,
  "previousHash": "8c400c6dcc15850101a6f0cff7260192ec7ccee961a40ebbce111f24f47274d2",
  "timestamp": 1534874491071,
  "data": {
   "user": "",
   "value": ""
  },
  "hash": "dbedb155ff976f4ec61e287d62ba59f43e68b05f5010342809f8c5b736f0335f"
 },
 {
  "index": 4,
  "previousHash": "dbedb155ff976f4ec61e287d62ba59f43e68b05f5010342809f8c5b736f0335f",
  "timestamp": 1534874491990,
  "data": {
   "user": "",
   "value": ""
  },
  "hash": "0cea5cf2280bbc339cc6e6b0b765f5e73dc8a00dd094d03dc9dd718f9bb972e5"
 },
 {
  "index": 5,
  "previousHash": "0cea5cf2280bbc339cc6e6b0b765f5e73dc8a00dd094d03dc9dd718f9bb972e5",
  "timestamp": 1534874492143,
  "data": {
   "user": "",
   "value": ""
  },
  "hash": "c7d23659c9daa5f81223b52e63a42b6ab445a6244e808a48f1cb3e3c765c2150"
 },
 {
  "index": 6,
  "previousHash": "c7d23659c9daa5f81223b52e63a42b6ab445a6244e808a48f1cb3e3c765c2150",
  "timestamp": 1534874492286,
  "data": {
   "user": "",
   "value": ""
  },
  "hash": "f37a84993502bb7a86b2dbffe6f318bb4134997b946c70962f0c19192457fa8c"
 },
 {
  "index": 7,
  "previousHash": "f37a84993502bb7a86b2dbffe6f318bb4134997b946c70962f0c19192457fa8c",
  "timestamp": 1534874494383,
  "data": {
   "user": "wedw",
   "value": "ewdwe"
  },
  "hash": "90488f185dd1b50f24e386f4e863780d86a2798d857263cca3d59fd9214c6bd9"
 },
 {
  "index": 8,
  "previousHash": "90488f185dd1b50f24e386f4e863780d86a2798d857263cca3d59fd9214c6bd9",
  "timestamp": 1534874496046,
  "data": {
   "user": "wedw",
   "value": "ewdwe"
  },
  "hash": "4f7501742a4009840d9894b1ece07ad53b41d8d2554d88094869c9f716536b73"
 },
 {
  "index": 9,
  "previousHash": "4f7501742a4009840d9894b1ece07ad53b41d8d2554d88094869c9f716536b73",
  "timestamp": 1534874496397,
  "data": {
   "user": "wedw",
   "value": "ewdwe"
  },
  "hash": "d182315cf4c6a6ced7bd31835e9f72f1ba1e10b0df7419a8c02c9f4b2ca1a2db"
 },
 {
  "index": 10,
  "previousHash": "d182315cf4c6a6ced7bd31835e9f72f1ba1e10b0df7419a8c02c9f4b2ca1a2db",
  "timestamp": 1534874496549,
  "data": {
   "user": "wedw",
   "value": "ewdwe"
  },
  "hash": "33d456c4d36ebe098d0567304dcbb43720a0344067c6d9ab2575bafcdf55ec47"
 },
 {
  "index": 11,
  "previousHash": "33d456c4d36ebe098d0567304dcbb43720a0344067c6d9ab2575bafcdf55ec47",
  "timestamp": 1534874496717,
  "data": {
   "user": "wedw",
   "value": "ewdwe"
  },
  "hash": "440dd15437ee62cfdb7504f469e600ad6db25831f6f478a3b2d2cadb311d170c"
 },
 {
  "index": 12,
  "previousHash": "440dd15437ee62cfdb7504f469e600ad6db25831f6f478a3b2d2cadb311d170c",
  "timestamp": 1534874496830,
  "data": {
   "user": "wedw",
   "value": "ewdwe"
  },
  "hash": "35f3475833561d0a4a924d153a6a7dc7cd488958779232f00114a852f64ec53d"
 },
 {
  "index": 13,
  "previousHash": "35f3475833561d0a4a924d153a6a7dc7cd488958779232f00114a852f64ec53d",
  "timestamp": 1534875695202,
  "data": {
   "user": "",
   "value": ""
  },
  "hash": "f906fa63a0c3e7d07e3c5422c7441a4b6921e54283db8eaaae41b1a562c3b712"
 },
 {
  "index": 14,
  "previousHash": "f906fa63a0c3e7d07e3c5422c7441a4b6921e54283db8eaaae41b1a562c3b712",
  "timestamp": 1534875697208,
  "data": {
   "user": "",
   "value": ""
  },
  "hash": "c8e8c406ecda3c4b6274fa219685e007fcbadfcd9ccc9c001f433e8e1c446ba7"
 },
 {
  "index": 15,
  "previousHash": "c8e8c406ecda3c4b6274fa219685e007fcbadfcd9ccc9c001f433e8e1c446ba7",
  "timestamp": 1534875697663,
  "data": {
   "user": "",
   "value": ""
  },
  "hash": "0c2e08e62b55bd4f510ecfac08fa7e7219f4fc4bf94a7ae2c8771221d3cce034"
 },
 {
  "index": 16,
  "previousHash": "0c2e08e62b55bd4f510ecfac08fa7e7219f4fc4bf94a7ae2c8771221d3cce034",
  "timestamp": 1534876792778,
  "data": {
   "user": "Test",
   "value": "123"
  },
  "hash": "672ae821d6d3cf8d911c7fcb5c09f115e67e0bf13f625a3d61579c0735e35a8c"
 },
 {
  "index": 17,
  "previousHash": "672ae821d6d3cf8d911c7fcb5c09f115e67e0bf13f625a3d61579c0735e35a8c",
  "timestamp": 1534876798721,
  "data": {
   "user": "Test More",
   "value": "123456"
  },
  "hash": "c4d20c75ab2c9bfac8f26cb258784f9d88746b9e95c5a7b6a317b47824369704"
 }
]